{
  "IsEncrypted": false,
  "Values": {
    "AzureWebJobsStorage": "UseDevelopmentStorage=true",
    "FUNCTIONS_WORKER_RUNTIME": "dotnet"
  },

  "AzureWebJobsStorage": {
    "ConnectionString": "UseDevelopmentStorage=true"
  },
  "SentimentQueue": {

    "QueueName": "",
    "ConnectionString": "UseDevelopmentStorage=true"
  },
  "TextQueue": {
    "QueueName": "",
    "ConnectionString": "UseDevelopmentStorage=true"
  },
  "AzureTextAnalytics": {
    "Endpoint": "https://analyst-textanalytics-production.cognitiveservices.azure.com/",
    "Key": "0117928d56344338970434479de7c877"
  }
}
